	;CNOP 0, 4
buyintopBMOD:
	DW   350,   159
	DD    13, buyintop_BLK, mkbuyin_HDR, _mkbuyin_CLT

	;CNOP 0, 4
buyintop_BLK:
	DW    15,     8,    64, 00000H,     2
	DW    15,   123,   100, 00000H,     3
	DW    53,     8,    64, 00000H,     5
	DW    57,   123,   100, 00000H,     6
	DW    84,   123,   100, 00000H,     7
	DW   135,     8,    64, 00000H,    10
	DW   137,   123,   100, 00000H,     6
	DW   177,   123,   100, 00000H,    13
	DW   214,     8,    64, 00000H,    15
	DW   214,   123,   100, 00000H,    14
	DW   252,   123,   100, 00000H,    17
	DW   291,   123,   100, 00000H,    19
	DW   294,     8,    64, 00000H,    20

	;CNOP 0, 4
buyinbotBMOD:
	DW   354,   161
	DD    10, buyinbot_BLK, mkbuyin_HDR, _mkbuyin_CLT

	;CNOP 0, 4
buyinbot_BLK:
	DW    18,    16,    64, 00000H,     1
	DW    18,    33,   100, 00000H,     0
	DW    47,    13,    64, 00000H,     4
	DW    97,    16,    64, 00000H,     8
	DW   126,    13,    64, 00000H,     9
	DW   177,    16,    64, 00000H,    11
	DW   180,    13,    64, 00000H,    12
	DW   243,    13,    64, 00000H,    16
	DW   258,    16,    64, 00000H,    18
	DW   323,    33,    64, 00000H,    21

	;CNOP 0, 4
mkbuyin_HDR:
	DW     0,   233,   162,    20,     4
	DW     0,   169,     1,    80,   136
	DW     2,   125,     1,    40,   137
	DW     0,   137,   137,    56,    25
	DW     0,     1,   137,    68,    25
	DW     0,     1,     1,    84,   136
	DW     0,   153,   162,    40,    25
	DW     0,   193,   137,    56,    25
	DW     1,     1,     1,    80,   136
	DW     0,     1,   162,    56,    25
	DW     1,    81,     1,    80,   136
	DW     0,    85,     1,    84,   136
	DW     0,    57,   162,    52,    25
	DW     0,   193,   162,    40,    25
	DW     0,     1,   187,    40,    25
	DW     1,   161,     1,    80,   136
	DW     0,    69,   137,    68,    25
	DW     0,    41,   187,    40,    25
	DW     2,     1,     1,    80,   136
	DW     0,   109,   162,    44,    25
	DW     2,    81,     1,    44,   136
	DW     0,    81,   187,    16,     4
