	;CNOP 0, 4
MKPIT4BMOD:
	DW   391,   202
	DD     4, MKPIT4_BLK, shaodie_HDR, _shaodie_CLT

	;CNOP 0, 4
MKPIT4_BLK:
	DW    17,   126,    64, 00100H,     8
	DW    29,     5,    64, 00010H,    11
	DW   199,   126,    64, 00110H,     8
	DW   201,     5,    64, 00000H,    11

	;CNOP 0, 4
MKPIT3BMOD:
	DW   189,    46
	DD     2, MKPIT3_BLK, shaodie_HDR, _shaodie_CLT

	;CNOP 0, 4
MKPIT3_BLK:
	DW    30,    11,    64, 00200H,    17
	DW   137,    11,    64, 00200H,    17

	;CNOP 0, 4
MKPIT2BMOD:
	DW   659,   467
	DD    16, MKPIT2_BLK, shaodie_HDR, _shaodie_CLT

	;CNOP 0, 4
MKPIT2_BLK:
	DW    67,    94,    64, 00510H,     0
	DW    68,    11,    64, 00410H,     1
	DW    69,   131,    64, 00510H,     2
	DW    69,   196,    64, 00610H,     3
	DW   101,    11,    64, 00510H,     6
	DW   111,   131,    64, 00910H,     7
	DW   119,   156,    64, 00710H,    10
	DW   131,    80,    64, 00910H,    12
	DW   461,    80,    64, 00900H,    12
	DW   461,   156,    64, 00700H,    10
	DW   466,    11,    64, 00500H,     6
	DW   509,    94,    64, 00500H,     0
	DW   509,   131,    64, 00900H,     7
	DW   518,   196,    64, 00600H,     3
	DW   529,   131,    64, 00500H,     2
	DW   535,    11,    64, 00400H,     1

	;CNOP 0, 4
MKPIT1BMOD:
	DW  1245,  2529
	DD    17, MKPIT1_BLK, shaodie_HDR, _shaodie_CLT

	;CNOP 0, 4
MKPIT1_BLK:
	DW   404,   259,    64, 00300H,     4
	DW   407,   216,    64, 01000H,     5
	DW   419,   302,    64, 00300H,     9
	DW   454,   216,    64, 01000H,    13
	DW   461,   259,    64, 00300H,    14
	DW   462,   302,    64, 00300H,    15
	DW   506,   216,    64, 01000H,    16
	DW   561,   216,    64, 01000H,    18
	DW   601,   216,    64, 01000H,    19
	DW   657,   216,    64, 01000H,    20
	DW   676,   259,    64, 00300H,     4
	DW   691,   302,    64, 00300H,     9
	DW   700,   216,    64, 01000H,    21
	DW   733,   259,    64, 00300H,    14
	DW   734,   302,    64, 00300H,    15
	DW   750,   216,    64, 01000H,    22
	DW   795,   216,    64, 00A00H,    23

	;CNOP 0, 4
shaodie_HDR:
	DW     0,   185,    60,    64,    37
	DW     2,   217,    48,    36,    83
	DW     2,   209,   174,    44,    65
	DW     3,   129,    81,    52,    76
	DW     1,   173,    83,    60,    43
	DW     3,     1,   113,    48,    43
	DW     0,   181,    97,    72,    84
	DW     0,   233,   181,    20,    65
	DW     0,     1,     1,   184,    71
	DW     3,     1,   156,    44,    46
	DW     1,   173,   126,    60,   116
	DW     1,     1,    43,   172,   121
	DW     3,    49,   113,    48,    77
	DW     2,   153,   181,    52,    43
	DW     2,   157,    52,    60,    43
	DW     3,    45,   190,    44,    46
	DW     2,   157,    95,    56,    43
	DW     1,     1,   216,    28,    30
	DW     2,   213,   131,    40,    43
	DW     2,   153,   138,    56,    43
	DW     3,   125,   200,    44,    43
	DW     3,   181,    81,    52,    43
	DW     3,   125,   157,    48,    43
	DW     3,   181,   124,    48,    43
