	;CNOP 0, 4
coinmodBMOD:
	DW   426,   671
	DD    28, coinmod_BLK, mk3coin_HDR, _mk3coin_CLT

	;CNOP 0, 4
coinmod_BLK:
	DW     8,     8,    64, 00000H,     0
	DW     8,   117,    64, 00000H,     0
	DW     8,   226,    64, 00000H,     0
	DW     8,   335,    64, 00000H,     0
	DW     8,   444,    64, 00000H,     0
	DW     8,   553,    64, 00000H,     0
	DW    77,   144,    70, 00100H,     1
	DW    79,   148,    69, 00000H,     2
	DW   110,     8,    64, 00000H,     0
	DW   110,   117,    64, 00000H,     0
	DW   110,   226,    64, 00000H,     0
	DW   110,   335,    64, 00000H,     0
	DW   110,   444,    64, 00000H,     0
	DW   110,   553,    64, 00000H,     0
	DW   200,   141,    70, 00100H,     3
	DW   212,     8,    64, 00000H,     0
	DW   212,   117,    64, 00000H,     0
	DW   212,   226,    64, 00000H,     0
	DW   212,   335,    64, 00000H,     0
	DW   212,   444,    64, 00000H,     0
	DW   212,   553,    64, 00000H,     0
	DW   218,   143,    69, 00000H,     4
	DW   314,     8,    64, 00000H,     0
	DW   314,   117,    64, 00000H,     0
	DW   314,   226,    64, 00000H,     0
	DW   314,   335,    64, 00000H,     0
	DW   314,   444,    64, 00000H,     0
	DW   314,   553,    64, 00000H,     0

	;CNOP 0, 4
mk3coin_HDR:
	DW     0,   141,    99,   104,   109
	DW     0,     1,   144,   124,    39
	DW     0,     1,    99,   140,    45
	DW     0,     1,     1,   172,    48
	DW     0,     1,    49,   156,    50
