	;CNOP 0, 4
godmodBMOD:
	DW   381,   312
	DD    37, godmod_BLK, gods_HDR, gods_CLT

	;CNOP 0, 4
godmod_BLK:
	DW     9,     6,    64, 00000H,     2
	DW     9,    67,    64, 00000H,     0
	DW     9,   179,    64, 00000H,     1
	DW     9,   182,    64, 00000H,     2
	DW     9,   243,    64, 00000H,     2
	DW    26,    70,    64, 00100H,     3
	DW    59,   182,    64, 00010H,     2
	DW    60,     6,    64, 00000H,     2
	DW    60,    67,    64, 00000H,     0
	DW    60,   179,    64, 00000H,     1
	DW    60,   243,    64, 00000H,     2
	DW   110,   182,    64, 00010H,     2
	DW   110,   243,    64, 00010H,     2
	DW   111,     6,    64, 00000H,     2
	DW   111,    67,    64, 00000H,     0
	DW   111,   179,    64, 00000H,     1
	DW   161,   182,    64, 00010H,     2
	DW   162,     6,    64, 00000H,     2
	DW   162,    67,    64, 00000H,     0
	DW   162,   179,    64, 00000H,     1
	DW   162,   243,    64, 00000H,     2
	DW   189,    70,    64, 00100H,     4
	DW   212,   182,    64, 00010H,     2
	DW   213,     6,    64, 00000H,     2
	DW   213,    67,    64, 00000H,     0
	DW   213,   179,    64, 00000H,     1
	DW   213,   243,    64, 00000H,     2
	DW   263,   182,    64, 00010H,     2
	DW   264,     6,    64, 00000H,     2
	DW   264,    67,    64, 00000H,     0
	DW   264,   179,    64, 00000H,     1
	DW   264,   243,    64, 00000H,     2
	DW   315,     6,    64, 00000H,     2
	DW   315,    67,    64, 00000H,     0
	DW   315,   179,    64, 00000H,     1
	DW   315,   182,    64, 00000H,     2
	DW   315,   243,    64, 00000H,     2

	;CNOP 0, 4
gods_HDR:
	DW     0,   165,     1,    52,     3
	DW     0,   165,     4,    52,     3
	DW     0,   165,     7,    52,    61
	DW     0,     1,     1,   164,   109
	DW     0,     1,   110,   160,   109
